"uri","record","organization","abbreviation"
"http://data.odw.tw/organization/Q10875097","典藏機構與計畫:中央研究院:歷史語言研究所:漢籍全文資料庫","中央研究院歷史語言研究所","中研院史語所"
"http://data.odw.tw/organization/Q10876581","典藏機構與計畫:公開徵選計畫:法鼓佛教學院:CBETA 中華電子佛典協會:台灣善本古籍數位化之研究與建構","CBETA 中華電子佛典協會","CBETA 協會"
"http://data.odw.tw/organization/Q10876581","典藏機構與計畫:公開徵選計畫:中華佛學研究所:CBETA 中華電子佛典協會:佛典數位典藏內容開發之研究與建構-經錄與經文內容標記與知識架構","CBETA 中華電子佛典協會","CBETA 協會"
"http://data.odw.tw/organization/Q10876581","典藏機構與計畫:公開徵選計畫:法鼓佛教學院:CBETA 中華電子佛典協會:佛教文獻詞彙數位資源之建置與研究-數位時代的佛學工具書與整合服務","CBETA 中華電子佛典協會","CBETA 協會"
"http://data.odw.tw/organization/Q10876581","典藏機構與計畫:公開徵選計畫:法鼓佛教學院:CBETA 中華電子佛典協會:台北版電子佛典集成","CBETA 中華電子佛典協會","CBETA 協會"
"http://data.odw.tw/organization/Q10926785","典藏機構與計畫:國史館臺灣文獻館:典藏日治與戰後史料數位化計畫:臺灣總督府報","國史館臺灣文獻館","台灣文獻館"
"http://data.odw.tw/organization/Q10927214","典藏機構與計畫:國立臺灣大學:物理學系:臺灣大學基礎物理實驗數位典藏計畫:基礎物理照片","國立臺灣大學物理學系","台大物理系"
"http://data.odw.tw/organization/Q10927214","典藏機構與計畫:國立臺灣大學:物理學系:臺灣大學基礎物理實驗數位典藏計畫:基礎物理實驗手稿","國立臺灣大學物理學系","台大物理系"
"http://data.odw.tw/organization/Q10927214","典藏機構與計畫:國立臺灣大學:物理學系:臺灣大學基礎物理實驗數位典藏計畫:基礎物理實驗影片","國立臺灣大學物理學系","台大物理系"
"http://data.odw.tw/organization/Q10927214","典藏機構與計畫:國立臺灣大學:物理學系:臺灣大學基礎物理實驗數位典藏計畫:基礎物理教材","國立臺灣大學物理學系","台大物理系"
"http://data.odw.tw/organization/Q15908182","典藏機構與計畫:公開徵選計畫:行政院農業委員會:林業試驗所:林業試驗所圖書館日治時期林業文獻典藏數位化計畫","行政院農業委員會林業試驗所","農委會林試所"
"http://data.odw.tw/organization/Q15908182","典藏機構與計畫:公開徵選計畫:行政院農業委員會:林業試驗所:台北植物園植株數位化計畫","行政院農業委員會林業試驗所","農委會林試所"
"http://data.odw.tw/organization/Q15908182","典藏機構與計畫:公開徵選計畫:行政院農業委員會:林業試驗所:林業試驗所植物標本館典藏數位化計畫","行政院農業委員會林業試驗所","農委會林試所"
"http://data.odw.tw/organization/Q15908182","典藏機構與計畫:公開徵選計畫:行政院農業委員會:林業試驗所:林業試驗所昆蟲標本典藏（影像）數位化計畫","行政院農業委員會林業試驗所","農委會林試所"
"http://data.odw.tw/organization/Q15908409","典藏機構與計畫:公開徵選計畫:行政院農業委員會:水產試驗所:台灣沿近海海洋生物標本之數位典藏-II 魚、貝、甲殼類","行政院農業委員會水產試驗所","農委會林試所"
"http://data.odw.tw/organization/Q15908409","典藏機構與計畫:公開徵選計畫:行政院農業委員會:水產試驗所:台灣沿近海海洋生物標本之數位典藏III -魚、貝、甲殼類","行政院農業委員會水產試驗所","農委會林試所"
"http://data.odw.tw/organization/Q15908409","典藏機構與計畫:公開徵選計畫:行政院農業委員會:水產試驗所:臺灣東部黑潮漁業文化數位典藏","行政院農業委員會水產試驗所","農委會林試所"
"http://data.odw.tw/organization/Q15908409","典藏機構與計畫:公開徵選計畫:行政院農業委員會:水產試驗所:台灣沿近海海洋生物標本之數位典藏（Ⅰ） －魚貝甲殼類","行政院農業委員會水產試驗所","農委會林試所"
"http://data.odw.tw/organization/Q15908409","典藏機構與計畫:公開徵選計畫:行政院農業委員會:水產試驗所:東部海洋生物研究中心:台灣東部海域魚類標本之數位典藏","行政院農業委員會水產試驗所","農委會林試所"
"http://data.odw.tw/organization/Q15909457","典藏機構與計畫:公開徵選計畫:行政院農業委員會:特有生物研究保育中心:台灣野生植物標本暨生態影像之數位典藏","行政院農業委員會特有生物研究保育中心","農委會特生中心"
"http://data.odw.tw/organization/Q20872458","典藏機構與計畫:中央研究院:民族學研究所:台灣原住民數位知識聚落開發合作計畫（原台灣原住民數位典藏國家型計畫）","中央研究院民族學研究所","中研院民族所"
"http://data.odw.tw/organization/Q20872478","典藏機構與計畫:中央研究院:生物多樣性研究中心:台灣動物相典藏之研究:台灣貝類相之數位典藏","中央研究院生物多樣性研究中心","中研院生多中心"
"http://data.odw.tw/organization/Q20872478","典藏機構與計畫:中央研究院:生物多樣性研究中心:台灣本土植物數位化典藏","中央研究院生物多樣性研究中心","中研院生多中心"
"http://data.odw.tw/organization/Q20872478","典藏機構與計畫:中央研究院:生物多樣性研究中心:臺灣動物相典藏之研究:臺灣魚類相之數位典藏","中央研究院生物多樣性研究中心","中研院生多中心"
"http://data.odw.tw/organization/Q20872494","典藏機構與計畫:國立臺灣大學:生態學與演化生物學研究所:植物標本館數位典藏計畫","國立臺灣大學生態學與演化生物學研究所","台大生態演化所"
"http://data.odw.tw/organization/Q20872494","典藏機構與計畫:國立臺灣大學:生態學與演化生物學研究所:臺灣大學動物博物館典藏數位化計畫","國立臺灣大學生態學與演化生物學研究所","台大生態演化所"
"http://data.odw.tw/organization/Q20872512","典藏機構與計畫:國立臺灣大學:地質科學系:臺灣大學地質科學典藏數位化計畫","國立臺灣大學地質科學系暨研究所","台大地質所"
"http://data.odw.tw/organization/Q20872564","典藏機構與計畫:國立臺灣大學:昆蟲標本館:臺灣大學昆蟲標本館典藏數位化計畫","國立臺灣大學昆蟲標本館","台大昆蟲館"
"http://data.odw.tw/organization/Q20872720","典藏機構與計畫:客家委員會:數位臺灣客家庄:臺灣客家影音數位典藏計畫","中華民國客家委員會數位臺灣客家庄","台灣客家庄"
"http://data.odw.tw/organization/Q20872720","典藏機構與計畫:客家委員會:數位臺灣客家庄:臺灣客家圖書數位典藏計畫","中華民國客家委員會數位臺灣客家庄","台灣客家庄"
"http://data.odw.tw/organization/Q20872720","典藏機構與計畫:客家委員會:數位臺灣客家庄:臺灣客庄文化數位典藏計畫","中華民國客家委員會數位臺灣客家庄","台灣客家庄"
"http://data.odw.tw/organization/Q20872922","典藏機構與計畫:行政院原住民族委員會:台灣原住民族文化園區:台灣原住民族傳統聚落(含古道)數位典藏","行政院原住民族委員會台灣原住民族文化園區","原民會文化園區"
"http://data.odw.tw/organization/Q20872922","典藏機構與計畫:行政院原住民族委員會:台灣原住民族文化園區:台灣原住民族藥、食用植物數位典藏","行政院原住民族委員會台灣原住民族文化園區","原民會文化園區"
"http://data.odw.tw/organization/Q20872922","典藏機構與計畫:行政院原住民族委員會:台灣原住民族文化園區:台灣原住民族歲時祭儀","行政院原住民族委員會台灣原住民族文化園區","原民會文化園區"
"http://data.odw.tw/organization/Q20872922","典藏機構與計畫:行政院原住民族委員會:台灣原住民族文化園區:台灣原住民族文化歷史記憶數位典藏","行政院原住民族委員會台灣原住民族文化園區","原民會文化園區"
"http://data.odw.tw/organization/Q20872922","典藏機構與計畫:行政院原住民族委員會:台灣原住民族文化園區:台灣原住民族工藝與文化資源調查數位典藏","行政院原住民族委員會台灣原住民族文化園區","原民會文化園區"
"http://data.odw.tw/organization/Q20872922","典藏機構與計畫:行政院原住民族委員會:台灣原住民族文化園區:擴充台灣原住民族文學家及藝術家資料庫數位內容","行政院原住民族委員會台灣原住民族文化園區","原民會文化園區"
"http://data.odw.tw/organization/Q20882468","典藏機構與計畫:公開徵選計畫:靜宜大學:台灣文學系:台灣古典文學家張達修手稿數位典藏計畫","靜宜大學台灣文學系","靜宜台灣文學系"
"http://data.odw.tw/organization/Q20882489","典藏機構與計畫:公開徵選計畫:淡江大學:體育室:排球運動在台發展文物資料館之建置","淡江大學體育室","淡大體育室"
"http://data.odw.tw/organization/Q20892748","典藏機構與計畫:公開徵選計畫:國立政治大學:台灣史研究所: 「台灣人權促進會」人權運動檔案及文獻之數位典藏計畫","國立政治大學台灣史研究所","政大台史所"
"http://data.odw.tw/organization/Q20892750","典藏機構與計畫:公開徵選計畫:國立政治大學:廣播電視學系:《中國時報》新聞攝影底片之數位化——台灣政治民主化過程裡的政府與政黨新聞","國立政治大學廣播電視學系","政大廣電系"
"http://data.odw.tw/organization/Q20892750","典藏機構與計畫:公開徵選計畫:國立政治大學:廣播電視學系:《中國時報》新聞攝影底片之數位化——文化藝術類與影視娛樂類","國立政治大學廣播電視學系","政大廣電系"
"http://data.odw.tw/organization/Q20892752","典藏機構與計畫:公開徵選計畫:國立臺灣戲曲學院:通識教育中心:民俗特技在臺灣的傳承與回顧","國立臺灣戲曲學院通識教育中心","戲曲學院通識中心"
"http://data.odw.tw/organization/Q20892755","典藏機構與計畫:公開徵選計畫:國防大學:環境資訊及工程學系:國防大學理工學院珍稀測量儀器數位典藏計畫","國防大學環境資訊及工程學系","國防大學環工系"
"http://data.odw.tw/organization/Q20892759","典藏機構與計畫:公開徵選計畫:國立臺灣海洋大學:海洋生物研究所:魚類典藏標本及魚類自然棲地資訊數位典藏之研究","國立臺灣海洋大學海洋生物研究所","海洋大學海生所"
"http://data.odw.tw/organization/Q20892762","典藏機構與計畫:公開徵選計畫:國立臺灣博物館:地學組:國立臺灣博物館館藏礦物標本典藏數位化計畫","國立臺灣博物館地學組","台灣博物館地學組"
"http://data.odw.tw/organization/Q20892764","典藏機構與計畫:公開徵選計畫:逢甲大學:歷史與文物管理研究所:中部地區民間契約文書數位典藏計畫","逢甲大學歷史與文物管理研究所","逢甲史物管理所"
"http://data.odw.tw/organization/Q20892768","典藏機構與計畫:公開徵選計畫:國立高雄大學:西洋語文學系:數墓:台灣墓碑數位為典藏、教學、及研究","國立高雄大學西洋語文學系","雄大西語系"
"http://data.odw.tw/organization/Q20892770","典藏機構與計畫:公開徵選計畫:國立自然科學博物館:典藏管理組:台灣寺廟建築之美-台中市樂成宮廟宇建築藝術數位典藏計畫","國立自然科學博物館典藏管理組","科博館典藏組"
"http://data.odw.tw/organization/Q20892813","典藏機構與計畫:公開徵選計畫:國立成功大學:建築學系:澎湖花宅傳統聚落生命史典藏計畫–清末至1950 年代","國立成功大學建築學系","成大建築系"
"http://data.odw.tw/organization/Q20893190","典藏機構與計畫:公開徵選計畫:銘傳大學:設計學院商業設計學系:尋找台灣攝影文化的歷史座標:Part 1日治時期的營業寫真館及業餘愛好者作品蒐研暨數位典藏計畫:羅訪梅照相館作品集","銘傳大學設計學院商業設計學系","銘傳商設系"
"http://data.odw.tw/organization/Q20893190","典藏機構與計畫:公開徵選計畫:銘傳大學:設計學院商業設計學系:尋找台灣攝影文化的歷史座標:Part 1日治時期的營業寫真館及業餘愛好者作品蒐研暨數位典藏計畫:林壽鎰作品集","銘傳大學設計學院商業設計學系","銘傳商設系"
"http://data.odw.tw/organization/Q20893190","典藏機構與計畫:公開徵選計畫:銘傳大學:設計學院商業設計學系:尋找台灣攝影文化的歷史座標:Part 1日治時期的營業寫真館及業餘愛好者作品蒐研暨數位典藏計畫:姜阿新家族相簿","銘傳大學設計學院商業設計學系","銘傳商設系"
"http://data.odw.tw/organization/Q20893190","典藏機構與計畫:公開徵選計畫:銘傳大學:設計學院商業設計學系:尋找台灣攝影文化的歷史座標:Part 1日治時期的營業寫真館及業餘愛好者作品蒐研暨數位典藏計畫:陳振芳作品集","銘傳大學設計學院商業設計學系","銘傳商設系"
"http://data.odw.tw/organization/Q20893190","典藏機構與計畫:公開徵選計畫:銘傳大學:設計學院商業設計學系:尋找台灣攝影文化的歷史座標:Part 1日治時期的營業寫真館及業餘愛好者作品蒐研暨數位典藏計畫:吳其章作品集","銘傳大學設計學院商業設計學系","銘傳商設系"
"http://data.odw.tw/organization/Q20893190","典藏機構與計畫:公開徵選計畫:銘傳大學:設計學院商業設計學系:尋找台灣攝影文化的歷史座標:Part 1日治時期的營業寫真館及業餘愛好者作品蒐研暨數位典藏計畫:黃玉柱作品集","銘傳大學設計學院商業設計學系","銘傳商設系"
"http://data.odw.tw/organization/Q20893190","典藏機構與計畫:公開徵選計畫:銘傳大學:設計學院商業設計學系:尋找台灣攝影文化的歷史座標:Part 1日治時期的營業寫真館及業餘愛好者作品蒐研暨數位典藏計畫:李釣綸作品集","銘傳大學設計學院商業設計學系","銘傳商設系"
"http://data.odw.tw/organization/Q20893190","典藏機構與計畫:公開徵選計畫:銘傳大學:設計學院商業設計學系:尋找台灣攝影文化的歷史座標:Part 1日治時期的營業寫真館及業餘愛好者作品蒐研暨數位典藏計畫:張才作品集","銘傳大學設計學院商業設計學系","銘傳商設系"
"http://data.odw.tw/organization/Q20893190","典藏機構與計畫:公開徵選計畫:銘傳大學:設計學院商業設計學系:尋找台灣攝影文化的歷史座標:Part 1日治時期的營業寫真館及業餘愛好者作品蒐研暨數位典藏計畫:吳金淼作品集","銘傳大學設計學院商業設計學系","銘傳商設系"
"http://data.odw.tw/organization/Q20893190","典藏機構與計畫:公開徵選計畫:銘傳大學:設計學院商業設計學系:尋找台灣攝影文化的歷史座標:Part 1日治時期的營業寫真館及業餘愛好者作品蒐研暨數位典藏計畫:姜振驤家族相簿","銘傳大學設計學院商業設計學系","銘傳商設系"
"http://data.odw.tw/organization/Q20893190","典藏機構與計畫:公開徵選計畫:銘傳大學:設計學院商業設計學系:尋找台灣攝影文化的歷史座標:Part 1日治時期的營業寫真館及業餘愛好者作品蒐研暨數位典藏計畫:林有力家族相簿","銘傳大學設計學院商業設計學系","銘傳商設系"
"http://data.odw.tw/organization/Q20893190","典藏機構與計畫:公開徵選計畫:銘傳大學:設計學院商業設計學系:尋找台灣攝影文化的歷史座標:Part 1日治時期的營業寫真館及業餘愛好者作品蒐研暨數位典藏計畫:李釣綸家族相簿","銘傳大學設計學院商業設計學系","銘傳商設系"
"http://data.odw.tw/organization/Q20893190","典藏機構與計畫:公開徵選計畫:銘傳大學:設計學院商業設計學系:尋找台灣攝影文化的歷史座標:Part 1日治時期的營業寫真館及業餘愛好者作品蒐研暨數位典藏計畫:鄧南光作品集","銘傳大學設計學院商業設計學系","銘傳商設系"
"http://data.odw.tw/organization/Q20962472","典藏機構與計畫:公開徵選計畫:輔仁大學:歷史學系:南京教區契約文書數位典藏計畫","輔仁大學歷史學系","輔大歷史系"
"http://data.odw.tw/organization/Q20962472","典藏機構與計畫:公開徵選計畫:輔仁大學:歷史學系:天主教耶穌會在台灣1950-2000傳教文獻數位典藏計畫","輔仁大學歷史學系","輔大歷史系"
"http://data.odw.tw/organization/Q20962476","典藏機構與計畫:公開徵選計畫:中華佛學研究所:數位典藏多媒體檔案之研究與建置-西藏珍藏語音檔案研究計畫","中華佛學研究所","中華佛學所"
"http://data.odw.tw/organization/Q20962479","典藏機構與計畫:公開徵選計畫:行政院農業委員會:農業試驗所:台灣昆蟲與螨類資源數位館之建立","行政院農業委員會農業試驗所","農委會農試所"
"http://data.odw.tw/organization/Q20962479","典藏機構與計畫:公開徵選計畫:行政院農業委員會:農業試驗所:農業試驗所典藏昆蟲標本數位化計畫 II","行政院農業委員會農業試驗所","農委會農試所"
"http://data.odw.tw/organization/Q20962479","典藏機構與計畫:公開徵選計畫:行政院農業委員會:農業試驗所:農業試驗所果樹種原標本數位化計畫","行政院農業委員會農業試驗所","農委會農試所"
"http://data.odw.tw/organization/Q20962479","典藏機構與計畫:公開徵選計畫:行政院農業委員會:農業試驗所:農業試驗所典藏昆蟲標本數位化計畫（原:農業試驗所典藏研究膜翅目昆蟲標本數位化計畫）","行政院農業委員會農業試驗所","農委會農試所"
"http://data.odw.tw/organization/Q20962485","典藏機構與計畫:公開徵選計畫:龍華科技大學:多媒體與遊戲發展科學系:華視教育文化節目之數位典藏","龍華科技大學多媒體與遊戲發展科學系","龍華多媒體系"
"http://data.odw.tw/organization/Q20962490","典藏機構與計畫:學術與社會應用推廣計畫:公開徵選計畫:國立成功大學:中國文學系:鹽水溪與嘉南大圳公眾史與公民行動數位典藏計畫","國立成功大學中國文學系","成大中文系"
"http://data.odw.tw/organization/Q20962494","典藏機構與計畫:公開徵選計畫:國立暨南國際大學:人類學研究所:打里摺文物數位典藏國家型科技計畫","國立暨南國際大學東南亞學系 (人類學研究所)","暨南東南亞學系"
"http://data.odw.tw/organization/Q20962496","典藏機構與計畫:公開徵選計畫:世新大學:廣播電視電影學系:國光劇團京劇經典劇目數位典藏計畫","世新大學廣播電視電影學系","世新廣電系"
"http://data.odw.tw/organization/Q20962497","典藏機構與計畫:公開徵選計畫:國立雲林科技大學:文化資產維護系:百年歷史印記－數位典藏國定古蹟嘉義舊監獄","國立雲林科技大學文化資產維護系","雲科大文化系"
"http://data.odw.tw/organization/Q20962501","典藏機構與計畫:學術與社會應用推廣計畫:公開徵選計畫:國立東華大學:自然資源與環境學系:共護台灣蛙蛙世界","國立東華大學自然資源與環境學系","東華環境學系"
"http://data.odw.tw/organization/Q20962503","典藏機構與計畫:學術與社會應用推廣計畫:公開徵選計畫:國立臺北藝術大學:教學與學習支援中心:藝師典範:李柏君藝術生命流轉紀實","國立臺北藝術大學教學與學習支援中心","北藝大教學中心"
"http://data.odw.tw/organization/Q20962504","典藏機構與計畫:學術與社會應用推廣計畫:公開徵選計畫:致理技術學院:國際貿易系:逆風高飛–台東地區弱勢族群的新希望","致理技術學院國際貿易系","致理國貿系"
"http://data.odw.tw/organization/Q32746","典藏機構與計畫:國立臺灣大學:臺大圖書館:臺灣大學臺灣近代醫療文物典藏數位化計畫:醫療文物","國立臺灣大學","台灣大學"
"http://data.odw.tw/organization/Q32746","典藏機構與計畫:國立臺灣大學:臺大圖書館:臺灣大學臺灣文獻文物典藏數位化計畫:臺灣古拓碑","國立臺灣大學","台灣大學"
"http://data.odw.tw/organization/Q32746","典藏機構與計畫:國立臺灣大學:臺大圖書館:臺灣大學臺灣近代醫療文物典藏數位化計畫:醫療舊藉","國立臺灣大學","台灣大學"
"http://data.odw.tw/organization/Q32746","典藏機構與計畫:國立臺灣大學:臺大圖書館:臺灣大學臺灣近代醫療文物典藏數位化計畫:醫療照片","國立臺灣大學","台灣大學"
"http://data.odw.tw/organization/Q32746","典藏機構與計畫:國立臺灣大學:臺大圖書館:臺灣大學臺灣文獻文物典藏數位化計畫:伊能嘉矩手稿","國立臺灣大學","台灣大學"
"http://data.odw.tw/organization/Q32746","典藏機構與計畫:國立臺灣大學:臺大圖書館:臺灣大學臺灣文獻文物典藏數位化計畫:淡新檔案","國立臺灣大學","台灣大學"
"http://data.odw.tw/organization/Q4716513","典藏機構與計畫:公開徵選計畫:真理大學:宗教學系:馬偕與牛津學堂","真理大學","真理大學"
"http://data.odw.tw/organization/Q618340","典藏機構與計畫:國家圖書館:古籍文獻典藏數位化計畫:善本古籍典藏數位化子計畫","國家圖書館","國家圖書館"
"http://data.odw.tw/organization/Q6978838","典藏機構與計畫:公開徵選計畫:國立臺灣藝術大學:偶戲世界－林柳新紀念偶戲博物館數位典藏計畫","國立臺灣藝術大學","台灣藝術大學"
"http://data.odw.tw/organization/Q9688828 ","典藏機構與計畫:公開徵選計畫:國立臺灣大學:人類學系:台灣天主教原住民部落傳教文獻數位典藏計畫","國立臺灣大學人類學系暨研究所","台大人類所"
"http://data.odw.tw/organization/Q9688828 ","典藏機構與計畫:國立臺灣大學:人類學系:臺灣大學人類學系典藏文物數位化計畫:考古學","國立臺灣大學人類學系暨研究所","台大人類所"
"http://data.odw.tw/organization/Q9688828 ","典藏機構與計畫:國立臺灣大學:人類學系:臺灣大學人類學系典藏文物數位化計畫:人類學","國立臺灣大學人類學系暨研究所","台大人類所"
