{
  "scheming_version": 1,
  "dataset_type": "article",
  "about": "Schema for Articles of Open Data Web",
  "about_url": "http://data.odw.tw",
  "dataset_fields": [
    {
      "field_name": "title",
      "label": "Title",
      "preset": "title",
      "form_placeholder": "eg. A descriptive title"
    },
    {
      "field_name": "name",
      "label": "URL",
      "preset": "dataset_slug",
      "form_placeholder": "eg. my-dataset"
    },
    {
      "field_name": "notes",
      "label": "Description",
      "form_snippet": "markdown.html",
      "form_placeholder": "eg. Some useful notes about the data"
    },
    {
      "field_name": "tag_string",
      "label": "Tags",
      "preset": "tag_string_autocomplete",
      "form_placeholder": "eg. economy, mental health, government"
    },
    {
      "field_name": "license_id",
      "label": "License",
      "form_snippet": "license.html",
      "help_text": "License definitions and additional information can be found at http://opendefinition.org/"
    },
    {
      "field_name": "owner_org",
      "label": "Organization",
      "preset": "dataset_organization"
    },
    {
      "field_name": "url",
      "label": "Source",
      "form_placeholder": "http://example.com/dataset.json",
      "display_property": "foaf:homepage",
      "display_snippet": "link.html"
    },
    {
      "field_name": "version",
      "label": "Version",
      "validators": "ignore_missing unicode package_version_validator",
      "form_placeholder": "1.0"
    },
    {
      "field_name": "author",
      "label": "Author",
      "form_placeholder": "Joe Bloggs"
    },
    {
      "field_name": "author_email",
      "label": "Author Email",
      "form_placeholder": "joe@example.com",
      "display_property": "dc:creator",
      "display_snippet": "email.html",
      "display_email_name_field": "author"
    },
    {
      "field_name": "maintainer",
      "label": "Maintainer",
      "form_placeholder": "Joe Bloggs",
      "display_property": "dc:contributor"
    },
    {
      "field_name": "maintainer_email",
      "label": "Maintainer Email",
      "form_placeholder": "joe@example.com",
      "display_property": "dc:contributor",
      "display_snippet": "email.html",
      "display_email_name_field": "maintainer"
    },
    {
      "field_name": "r4r:locateAt",
      "label": "r4r:locateAt",
      "display_property": "r4r:locateAt",
      "display_snippet": "link_modified.html"
    },
    { "field_name": "dc:contributor",
      "label": "dc:contributor",
      "display_property": "dc:contributor",
      "preset": "repeating_text_modified"
    },
    { "field_name": "dc:coverage",
      "label": "dc:coverage",
      "display_property": "dc:coverage",
      "preset": "repeating_text_modified"
    },
    {
      "field_name": "dc:creator",
      "label": "dc:creator",
      "display_property": "dc:creator",
      "preset": "repeating_text_modified"
    },
    {
      "field_name": "dc:date",
      "label": "dc:date",
      "display_property": "dc:date",
      "preset": "repeating_text_modified"
    },
    {
      "field_name": "dc:description",
      "label": "dc:description",
      "display_property": "dc:description",
      "preset": "repeating_text_modified"
    },
    {
      "field_name": "dc:format",
      "label": "dc:format",
      "display_property": "dc:format",
      "preset": "repeating_text_modified"
    },
    {
      "field_name": "dc:identifier",
      "label": "dc:identifier",
      "display_property": "dc:identifier",
      "preset": "repeating_text_modified"
    },
    {
      "field_name": "dc:language",
      "label": "dc:language",
      "display_property": "dc:language",
      "preset": "repeating_text_modified"
    },
    {
      "field_name": "dc:publisher",
      "label": "dc:publisher",
      "display_property": "dc:publisher",
      "preset": "repeating_text_modified"
    },
    {
      "field_name": "dc:rights",
      "label": "dc:rights",
      "display_property": "dc:rights",
      "preset": "repeating_text_modified"
    },
    {
      "field_name": "dc:relation",
      "label": "dc:relation",
      "display_property": "dc:relation",
      "preset": "repeating_text_modified"
    },
    {
      "field_name": "dc:source",
      "label": "dc:source",
      "display_property": "dc:source",
      "preset": "repeating_text_modified"
    },
    {
      "field_name": "dc:subject",
      "label": "dc:subject",
      "display_property": "dc:subject",
      "preset": "repeating_text_modified"
    },
    {
      "field_name": "dc:title",
      "label": "dc:title",
      "display_property": "dc:title",
      "preset": "repeating_text_modified"
    },
    {
      "field_name": "dc:type",
      "label": "dc:type",
      "display_property": "dc:type",
      "preset": "repeating_text_modified"
    },
    {
      "field_name": "r4r:hasProvenance",
      "label": "r4r:hasProvenance",
      "display_property": "r4r:hasProvenance",
      "display_snippet": "link_modified.html"
    },
    {
      "field_name": "rdf:type_meta",
      "label": "rdf:type",
      "display_property": "rdf:type",
      "preset": "repeating_text_modified",
      "display_snippet": "link_for_iri.html"
    },
    {
      "field_name": "rdf:type_prov",
      "label": "rdf:type",
      "display_property": "rdf:type",
      "preset": "repeating_text_modified",
      "display_snippet": "link_for_iri.html"
    },
    {
      "field_name": "prov:wasAssociatedWith",
      "label": "prov:wasAssociatedWith",
      "display_property": "prov:wasAssociatedWith",
      "preset": "repeating_text_modified",
      "display_snippet": "link_for_iri.html"
    },
    {
      "field_name": "prov:startedAtTime",
      "label": "prov:startedAtTime",
      "display_property": "prov:startedAtTime"
    },
    {
      "field_name": "prov:endedAtTime",
      "label": "prov:endedAtTime",
      "display_property": "prov:endedAtTime"
    },
    {
      "field_name": "prov:atLocation",
      "label": "prov:atLocation",
      "display_property": "prov:atLocation",
      "display_snippet": "link_for_iri.html"
    },
    {
      "field_name": "r4r:isPackagedWith",
      "label": "r4r:isPackagedWith",
      "preset": "repeating_mapping",
      "include_details": false,
      "display_snippet": "link_for_nested_iri.html"
    },
    {
      "field_name": "r4r:hasLicense",
      "label": "r4r:hasLicense",
      "display_property": "r4r:hasLicense",
      "display_snippet": "license_link.html"
    }
  ],
  "resource_fields": [
    {
      "field_name": "url",
      "label": "URL",
      "preset": "resource_url_upload"
    },
    {
      "field_name": "name",
      "label": "Name",
      "form_placeholder": "eg. January 2011 Gold Prices"
    },
    {
      "field_name": "description",
      "label": "Description",
      "form_snippet": "markdown.html",
      "form_placeholder": "Some useful notes about the data"
    },
    {
      "field_name": "format",
      "label": "Format",
      "preset": "resource_format_autocomplete"
    }
  ]
}
